^C:\USERS\WPB\DOCUMENTS\COMP 446 CODE\PARTII\CHAPTER 5\COLORED CUBE EDITTED\BOX.CPP
/c /Zi /nologo /W3 /WX- /O2 /Oy- /GL /D WIN32 /D NDEBUG /D _WINDOWS /D _UNICODE /D UNICODE /Gm- /EHsc /MD /GS /fp:precise /Zc:wchar_t /Zc:forScope /Fo"Release\\" /Fd"Release\vc100.pdb" /Gd /TP /analyze- /errorReport:prompt C:\USERS\WPB\DOCUMENTS\COMP 446 CODE\PARTII\CHAPTER 5\COLORED CUBE EDITTED\BOX.CPP
^C:\USERS\WPB\DOCUMENTS\COMP 446 CODE\PARTII\COMMON\D3DAPP.CPP
/c /Zi /nologo /W3 /WX- /O2 /Oy- /GL /D WIN32 /D NDEBUG /D _WINDOWS /D _UNICODE /D UNICODE /Gm- /EHsc /MD /GS /fp:precise /Zc:wchar_t /Zc:forScope /Fo"Release\\" /Fd"Release\vc100.pdb" /Gd /TP /analyze- /errorReport:prompt C:\USERS\WPB\DOCUMENTS\COMP 446 CODE\PARTII\COMMON\D3DAPP.CPP
^C:\USERS\WPB\DOCUMENTS\COMP 446 CODE\PARTII\COMMON\GAMETIMER.CPP
/c /Zi /nologo /W3 /WX- /O2 /Oy- /GL /D WIN32 /D NDEBUG /D _WINDOWS /D _UNICODE /D UNICODE /Gm- /EHsc /MD /GS /fp:precise /Zc:wchar_t /Zc:forScope /Fo"Release\\" /Fd"Release\vc100.pdb" /Gd /TP /analyze- /errorReport:prompt C:\USERS\WPB\DOCUMENTS\COMP 446 CODE\PARTII\COMMON\GAMETIMER.CPP
^C:\USERS\WPB\DOCUMENTS\COMP 446 CODE\PARTII\CHAPTER 5\COLORED CUBE EDITTED\COLORED CUBE APP.CPP
/c /Zi /nologo /W3 /WX- /O2 /Oy- /GL /D WIN32 /D NDEBUG /D _WINDOWS /D _UNICODE /D UNICODE /Gm- /EHsc /MD /GS /fp:precise /Zc:wchar_t /Zc:forScope /Fo"Release\\" /Fd"Release\vc100.pdb" /Gd /TP /analyze- /errorReport:prompt C:\USERS\WPB\DOCUMENTS\COMP 446 CODE\PARTII\CHAPTER 5\COLORED CUBE EDITTED\COLORED CUBE APP.CPP
^C:\USERS\BIRMINGHAMWP\DOCUMENTS\CLASSES\COMP 446\COMP 446 S14\PARTII\MY CODE\SCENE DESIGN ADDED PRIMITIVES\BOX.CPP
/c /Zi /nologo /W3 /WX- /O2 /Oy- /GL /D WIN32 /D NDEBUG /D _WINDOWS /D _UNICODE /D UNICODE /Gm- /EHsc /MD /GS /fp:precise /Zc:wchar_t /Zc:forScope /Fo"Release\\" /Fd"Release\vc100.pdb" /Gd /TP /analyze- /errorReport:prompt C:\USERS\BIRMINGHAMWP\DOCUMENTS\CLASSES\COMP 446\COMP 446 S14\PARTII\MY CODE\SCENE DESIGN ADDED PRIMITIVES\BOX.CPP
^C:\USERS\BIRMINGHAMWP\DOCUMENTS\CLASSES\COMP 446\COMP 446 S14\PARTII\MY CODE\SCENE DESIGN ADDED PRIMITIVES\COLORED CUBE APP.CPP
/c /Zi /nologo /W3 /WX- /O2 /Oy- /GL /D WIN32 /D NDEBUG /D _WINDOWS /D _UNICODE /D UNICODE /Gm- /EHsc /MD /GS /fp:precise /Zc:wchar_t /Zc:forScope /Fo"Release\\" /Fd"Release\vc100.pdb" /Gd /TP /analyze- /errorReport:prompt C:\USERS\BIRMINGHAMWP\DOCUMENTS\CLASSES\COMP 446\COMP 446 S14\PARTII\MY CODE\SCENE DESIGN ADDED PRIMITIVES\COLORED CUBE APP.CPP
^C:\USERS\BIRMINGHAMWP\DOCUMENTS\CLASSES\COMP 446\COMP 446 S14\PARTII\COMMON\D3DAPP.CPP
/c /Zi /nologo /W3 /WX- /O2 /Oy- /GL /D WIN32 /D NDEBUG /D _WINDOWS /D _UNICODE /D UNICODE /Gm- /EHsc /MD /GS /fp:precise /Zc:wchar_t /Zc:forScope /Fo"Release\\" /Fd"Release\vc100.pdb" /Gd /TP /analyze- /errorReport:prompt C:\USERS\BIRMINGHAMWP\DOCUMENTS\CLASSES\COMP 446\COMP 446 S14\PARTII\COMMON\D3DAPP.CPP
^C:\USERS\BIRMINGHAMWP\DOCUMENTS\CLASSES\COMP 446\COMP 446 S14\PARTII\COMMON\GAMETIMER.CPP
/c /Zi /nologo /W3 /WX- /O2 /Oy- /GL /D WIN32 /D NDEBUG /D _WINDOWS /D _UNICODE /D UNICODE /Gm- /EHsc /MD /GS /fp:precise /Zc:wchar_t /Zc:forScope /Fo"Release\\" /Fd"Release\vc100.pdb" /Gd /TP /analyze- /errorReport:prompt C:\USERS\BIRMINGHAMWP\DOCUMENTS\CLASSES\COMP 446\COMP 446 S14\PARTII\COMMON\GAMETIMER.CPP
^C:\USERS\BIRMINGHAMWP\DOCUMENTS\CLASSES\COMP 446\COMP 446 S14\PARTII\MY CODE\SCENE DESIGN ADDED PRIMITIVES\GAMEOBJECT.CPP
/c /Zi /nologo /W3 /WX- /O2 /Oy- /GL /D WIN32 /D NDEBUG /D _WINDOWS /D _UNICODE /D UNICODE /Gm- /EHsc /MD /GS /fp:precise /Zc:wchar_t /Zc:forScope /Fo"Release\\" /Fd"Release\vc100.pdb" /Gd /TP /analyze- /errorReport:prompt C:\USERS\BIRMINGHAMWP\DOCUMENTS\CLASSES\COMP 446\COMP 446 S14\PARTII\MY CODE\SCENE DESIGN ADDED PRIMITIVES\GAMEOBJECT.CPP
^C:\USERS\BIRMINGHAMWP\DOCUMENTS\CLASSES\COMP 446\COMP 446 S14\PARTII\MY CODE\SCENE DESIGN ADDED PRIMITIVES\LINE.CPP
/c /Zi /nologo /W3 /WX- /O2 /Oy- /GL /D WIN32 /D NDEBUG /D _WINDOWS /D _UNICODE /D UNICODE /Gm- /EHsc /MD /GS /fp:precise /Zc:wchar_t /Zc:forScope /Fo"Release\\" /Fd"Release\vc100.pdb" /Gd /TP /analyze- /errorReport:prompt C:\USERS\BIRMINGHAMWP\DOCUMENTS\CLASSES\COMP 446\COMP 446 S14\PARTII\MY CODE\SCENE DESIGN ADDED PRIMITIVES\LINE.CPP
^C:\USERS\BIRMINGHAMWP\DOCUMENTS\CLASSES\COMP 446\COMP 446 S14\PARTII\MY CODE\SCENE DESIGN ADDED PRIMITIVES\QUAD.CPP
/c /Zi /nologo /W3 /WX- /O2 /Oy- /GL /D WIN32 /D NDEBUG /D _WINDOWS /D _UNICODE /D UNICODE /Gm- /EHsc /MD /GS /fp:precise /Zc:wchar_t /Zc:forScope /Fo"Release\\" /Fd"Release\vc100.pdb" /Gd /TP /analyze- /errorReport:prompt C:\USERS\BIRMINGHAMWP\DOCUMENTS\CLASSES\COMP 446\COMP 446 S14\PARTII\MY CODE\SCENE DESIGN ADDED PRIMITIVES\QUAD.CPP
