^C:\USERS\WPB\DOCUMENTS\COMP 446 CODE\PARTII\CHAPTER 5\COLORED CUBE EDITTED\BOX.CPP|C:\USERS\WPB\DOCUMENTS\COMP 446 CODE\PARTII\CHAPTER 5\COLORED CUBE EDITTED\COLORED CUBE APP.CPP|C:\USERS\WPB\DOCUMENTS\COMP 446 CODE\PARTII\COMMON\D3DAPP.CPP|C:\USERS\WPB\DOCUMENTS\COMP 446 CODE\PARTII\COMMON\GAMETIMER.CPP
C:\USERS\WPB\DOCUMENTS\COMP 446 CODE\PARTII\CHAPTER 5\COLORED CUBE EDITTED\RELEASE\GAMETIMER.OBJ
C:\USERS\WPB\DOCUMENTS\COMP 446 CODE\PARTII\CHAPTER 5\COLORED CUBE EDITTED\RELEASE\D3DAPP.OBJ
C:\USERS\WPB\DOCUMENTS\COMP 446 CODE\PARTII\CHAPTER 5\COLORED CUBE EDITTED\RELEASE\COLORED CUBE APP.OBJ
C:\USERS\WPB\DOCUMENTS\COMP 446 CODE\PARTII\CHAPTER 5\COLORED CUBE EDITTED\RELEASE\BOX.OBJ
^C:\USERS\WPB\DOCUMENTS\COMP 446 CODE\PARTII\CHAPTER 5\COLORED CUBE EDITTED\BOX.CPP
C:\USERS\WPB\DOCUMENTS\COMP 446 CODE\PARTII\CHAPTER 5\COLORED CUBE EDITTED\RELEASE\VC100.PDB
^C:\USERS\WPB\DOCUMENTS\COMP 446 CODE\PARTII\COMMON\D3DAPP.CPP
C:\USERS\WPB\DOCUMENTS\COMP 446 CODE\PARTII\CHAPTER 5\COLORED CUBE EDITTED\RELEASE\VC100.PDB
^C:\USERS\WPB\DOCUMENTS\COMP 446 CODE\PARTII\COMMON\GAMETIMER.CPP
C:\USERS\WPB\DOCUMENTS\COMP 446 CODE\PARTII\CHAPTER 5\COLORED CUBE EDITTED\RELEASE\VC100.PDB
^C:\USERS\WPB\DOCUMENTS\COMP 446 CODE\PARTII\CHAPTER 5\COLORED CUBE EDITTED\COLORED CUBE APP.CPP
C:\USERS\WPB\DOCUMENTS\COMP 446 CODE\PARTII\CHAPTER 5\COLORED CUBE EDITTED\RELEASE\COLORED CUBE APP.OBJ
C:\USERS\WPB\DOCUMENTS\COMP 446 CODE\PARTII\CHAPTER 5\COLORED CUBE EDITTED\RELEASE\VC100.PDB
^C:\USERS\BIRMINGHAMWP\DOCUMENTS\CLASSES\COMP 446\COMP 446 S14\PARTII\COMMON\D3DAPP.CPP|C:\USERS\BIRMINGHAMWP\DOCUMENTS\CLASSES\COMP 446\COMP 446 S14\PARTII\COMMON\GAMETIMER.CPP|C:\USERS\BIRMINGHAMWP\DOCUMENTS\CLASSES\COMP 446\COMP 446 S14\PARTII\MY CODE\SCENE DESIGN ADDED PRIMITIVES\BOX.CPP|C:\USERS\BIRMINGHAMWP\DOCUMENTS\CLASSES\COMP 446\COMP 446 S14\PARTII\MY CODE\SCENE DESIGN ADDED PRIMITIVES\COLORED CUBE APP.CPP|C:\USERS\BIRMINGHAMWP\DOCUMENTS\CLASSES\COMP 446\COMP 446 S14\PARTII\MY CODE\SCENE DESIGN ADDED PRIMITIVES\GAMEOBJECT.CPP|C:\USERS\BIRMINGHAMWP\DOCUMENTS\CLASSES\COMP 446\COMP 446 S14\PARTII\MY CODE\SCENE DESIGN ADDED PRIMITIVES\LINE.CPP|C:\USERS\BIRMINGHAMWP\DOCUMENTS\CLASSES\COMP 446\COMP 446 S14\PARTII\MY CODE\SCENE DESIGN ADDED PRIMITIVES\QUAD.CPP
C:\USERS\BIRMINGHAMWP\DOCUMENTS\CLASSES\COMP 446\COMP 446 S14\PARTII\MY CODE\SCENE DESIGN ADDED PRIMITIVES\RELEASE\QUAD.OBJ
C:\USERS\BIRMINGHAMWP\DOCUMENTS\CLASSES\COMP 446\COMP 446 S14\PARTII\MY CODE\SCENE DESIGN ADDED PRIMITIVES\RELEASE\LINE.OBJ
C:\USERS\BIRMINGHAMWP\DOCUMENTS\CLASSES\COMP 446\COMP 446 S14\PARTII\MY CODE\SCENE DESIGN ADDED PRIMITIVES\RELEASE\GAMEOBJECT.OBJ
C:\USERS\BIRMINGHAMWP\DOCUMENTS\CLASSES\COMP 446\COMP 446 S14\PARTII\MY CODE\SCENE DESIGN ADDED PRIMITIVES\RELEASE\GAMETIMER.OBJ
C:\USERS\BIRMINGHAMWP\DOCUMENTS\CLASSES\COMP 446\COMP 446 S14\PARTII\MY CODE\SCENE DESIGN ADDED PRIMITIVES\RELEASE\D3DAPP.OBJ
C:\USERS\BIRMINGHAMWP\DOCUMENTS\CLASSES\COMP 446\COMP 446 S14\PARTII\MY CODE\SCENE DESIGN ADDED PRIMITIVES\RELEASE\COLORED CUBE APP.OBJ
C:\USERS\BIRMINGHAMWP\DOCUMENTS\CLASSES\COMP 446\COMP 446 S14\PARTII\MY CODE\SCENE DESIGN ADDED PRIMITIVES\RELEASE\BOX.OBJ
^C:\USERS\BIRMINGHAMWP\DOCUMENTS\CLASSES\COMP 446\COMP 446 S14\PARTII\MY CODE\SCENE DESIGN ADDED PRIMITIVES\BOX.CPP
C:\USERS\BIRMINGHAMWP\DOCUMENTS\CLASSES\COMP 446\COMP 446 S14\PARTII\MY CODE\SCENE DESIGN ADDED PRIMITIVES\RELEASE\VC100.PDB
^C:\USERS\BIRMINGHAMWP\DOCUMENTS\CLASSES\COMP 446\COMP 446 S14\PARTII\MY CODE\SCENE DESIGN ADDED PRIMITIVES\COLORED CUBE APP.CPP
C:\USERS\BIRMINGHAMWP\DOCUMENTS\CLASSES\COMP 446\COMP 446 S14\PARTII\MY CODE\SCENE DESIGN ADDED PRIMITIVES\RELEASE\VC100.PDB
^C:\USERS\BIRMINGHAMWP\DOCUMENTS\CLASSES\COMP 446\COMP 446 S14\PARTII\COMMON\D3DAPP.CPP
C:\USERS\BIRMINGHAMWP\DOCUMENTS\CLASSES\COMP 446\COMP 446 S14\PARTII\MY CODE\SCENE DESIGN ADDED PRIMITIVES\RELEASE\VC100.PDB
^C:\USERS\BIRMINGHAMWP\DOCUMENTS\CLASSES\COMP 446\COMP 446 S14\PARTII\COMMON\GAMETIMER.CPP
C:\USERS\BIRMINGHAMWP\DOCUMENTS\CLASSES\COMP 446\COMP 446 S14\PARTII\MY CODE\SCENE DESIGN ADDED PRIMITIVES\RELEASE\VC100.PDB
^C:\USERS\BIRMINGHAMWP\DOCUMENTS\CLASSES\COMP 446\COMP 446 S14\PARTII\MY CODE\SCENE DESIGN ADDED PRIMITIVES\GAMEOBJECT.CPP
C:\USERS\BIRMINGHAMWP\DOCUMENTS\CLASSES\COMP 446\COMP 446 S14\PARTII\MY CODE\SCENE DESIGN ADDED PRIMITIVES\RELEASE\VC100.PDB
^C:\USERS\BIRMINGHAMWP\DOCUMENTS\CLASSES\COMP 446\COMP 446 S14\PARTII\MY CODE\SCENE DESIGN ADDED PRIMITIVES\LINE.CPP
C:\USERS\BIRMINGHAMWP\DOCUMENTS\CLASSES\COMP 446\COMP 446 S14\PARTII\MY CODE\SCENE DESIGN ADDED PRIMITIVES\RELEASE\VC100.PDB
^C:\USERS\BIRMINGHAMWP\DOCUMENTS\CLASSES\COMP 446\COMP 446 S14\PARTII\MY CODE\SCENE DESIGN ADDED PRIMITIVES\QUAD.CPP
C:\USERS\BIRMINGHAMWP\DOCUMENTS\CLASSES\COMP 446\COMP 446 S14\PARTII\MY CODE\SCENE DESIGN ADDED PRIMITIVES\RELEASE\VC100.PDB
