^C:\USERS\WPB\DOCUMENTS\COMP 446 CODE\PARTII\CHAPTER 5\COLORED CUBE EDITTED\RELEASE\BOX.OBJ|C:\USERS\WPB\DOCUMENTS\COMP 446 CODE\PARTII\CHAPTER 5\COLORED CUBE EDITTED\RELEASE\COLORED CUBE APP.OBJ|C:\USERS\WPB\DOCUMENTS\COMP 446 CODE\PARTII\CHAPTER 5\COLORED CUBE EDITTED\RELEASE\D3DAPP.OBJ|C:\USERS\WPB\DOCUMENTS\COMP 446 CODE\PARTII\CHAPTER 5\COLORED CUBE EDITTED\RELEASE\GAMETIMER.OBJ
C:\PROGRAM FILES (X86)\MICROSOFT VISUAL STUDIO 10.0\VC\BIN\LINK.EXE
C:\PROGRAM FILES (X86)\MICROSOFT DIRECTX SDK (JUNE 2010)\LIB\X86\D3D10.LIB
C:\PROGRAM FILES (X86)\MICROSOFT DIRECTX SDK (JUNE 2010)\LIB\X86\D3DX10.LIB
C:\PROGRAM FILES (X86)\MICROSOFT DIRECTX SDK (JUNE 2010)\LIB\X86\DXERR.LIB
C:\PROGRAM FILES (X86)\MICROSOFT DIRECTX SDK (JUNE 2010)\LIB\X86\DXGUID.LIB
C:\PROGRAM FILES (X86)\MICROSOFT SDKS\WINDOWS\V7.0A\LIB\KERNEL32.LIB
C:\PROGRAM FILES (X86)\MICROSOFT SDKS\WINDOWS\V7.0A\LIB\USER32.LIB
C:\PROGRAM FILES (X86)\MICROSOFT SDKS\WINDOWS\V7.0A\LIB\GDI32.LIB
C:\PROGRAM FILES (X86)\MICROSOFT SDKS\WINDOWS\V7.0A\LIB\WINSPOOL.LIB
C:\PROGRAM FILES (X86)\MICROSOFT SDKS\WINDOWS\V7.0A\LIB\COMDLG32.LIB
C:\PROGRAM FILES (X86)\MICROSOFT SDKS\WINDOWS\V7.0A\LIB\ADVAPI32.LIB
C:\PROGRAM FILES (X86)\MICROSOFT SDKS\WINDOWS\V7.0A\LIB\SHELL32.LIB
C:\PROGRAM FILES (X86)\MICROSOFT SDKS\WINDOWS\V7.0A\LIB\OLE32.LIB
C:\PROGRAM FILES (X86)\MICROSOFT SDKS\WINDOWS\V7.0A\LIB\OLEAUT32.LIB
C:\PROGRAM FILES (X86)\MICROSOFT SDKS\WINDOWS\V7.0A\LIB\UUID.LIB
C:\PROGRAM FILES (X86)\MICROSOFT SDKS\WINDOWS\V7.0A\LIB\ODBC32.LIB
C:\PROGRAM FILES (X86)\MICROSOFT SDKS\WINDOWS\V7.0A\LIB\ODBCCP32.LIB
C:\USERS\WPB\DOCUMENTS\COMP 446 CODE\PARTII\CHAPTER 5\COLORED CUBE EDITTED\RELEASE\BOX.OBJ
C:\USERS\WPB\DOCUMENTS\COMP 446 CODE\PARTII\CHAPTER 5\COLORED CUBE EDITTED\RELEASE\COLORED CUBE APP.OBJ
C:\USERS\WPB\DOCUMENTS\COMP 446 CODE\PARTII\CHAPTER 5\COLORED CUBE EDITTED\RELEASE\D3DAPP.OBJ
C:\USERS\WPB\DOCUMENTS\COMP 446 CODE\PARTII\CHAPTER 5\COLORED CUBE EDITTED\RELEASE\GAMETIMER.OBJ
C:\WINDOWS\GLOBALIZATION\SORTING\SORTDEFAULT.NLS
C:\PROGRAM FILES (X86)\MICROSOFT VISUAL STUDIO 10.0\VC\BIN\C2.DLL
C:\PROGRAM FILES (X86)\MICROSOFT VISUAL STUDIO 10.0\VC\LIB\MSVCPRT.LIB
C:\PROGRAM FILES (X86)\MICROSOFT VISUAL STUDIO 10.0\VC\LIB\MSVCRT.LIB
C:\PROGRAM FILES (X86)\MICROSOFT VISUAL STUDIO 10.0\VC\LIB\OLDNAMES.LIB
C:\PROGRAM FILES (X86)\MICROSOFT VISUAL STUDIO 10.0\VC\BIN\1033\LINKUI.DLL
^C:\USERS\BIRMINGHAMWP\DOCUMENTS\CLASSES\COMP 446\COMP 446 S14\PARTII\MY CODE\SCENE DESIGN ADDED PRIMITIVES\RELEASE\BOX.OBJ|C:\USERS\BIRMINGHAMWP\DOCUMENTS\CLASSES\COMP 446\COMP 446 S14\PARTII\MY CODE\SCENE DESIGN ADDED PRIMITIVES\RELEASE\COLORED CUBE APP.OBJ|C:\USERS\BIRMINGHAMWP\DOCUMENTS\CLASSES\COMP 446\COMP 446 S14\PARTII\MY CODE\SCENE DESIGN ADDED PRIMITIVES\RELEASE\D3DAPP.OBJ|C:\USERS\BIRMINGHAMWP\DOCUMENTS\CLASSES\COMP 446\COMP 446 S14\PARTII\MY CODE\SCENE DESIGN ADDED PRIMITIVES\RELEASE\GAMEOBJECT.OBJ|C:\USERS\BIRMINGHAMWP\DOCUMENTS\CLASSES\COMP 446\COMP 446 S14\PARTII\MY CODE\SCENE DESIGN ADDED PRIMITIVES\RELEASE\GAMETIMER.OBJ|C:\USERS\BIRMINGHAMWP\DOCUMENTS\CLASSES\COMP 446\COMP 446 S14\PARTII\MY CODE\SCENE DESIGN ADDED PRIMITIVES\RELEASE\LINE.OBJ|C:\USERS\BIRMINGHAMWP\DOCUMENTS\CLASSES\COMP 446\COMP 446 S14\PARTII\MY CODE\SCENE DESIGN ADDED PRIMITIVES\RELEASE\QUAD.OBJ
C:\PROGRAM FILES (X86)\MICROSOFT DIRECTX SDK (JUNE 2010)\LIB\X86\D3D10.LIB
C:\PROGRAM FILES (X86)\MICROSOFT DIRECTX SDK (JUNE 2010)\LIB\X86\D3DX10.LIB
C:\PROGRAM FILES (X86)\MICROSOFT DIRECTX SDK (JUNE 2010)\LIB\X86\DXERR.LIB
C:\PROGRAM FILES (X86)\MICROSOFT DIRECTX SDK (JUNE 2010)\LIB\X86\DXGUID.LIB
C:\PROGRAM FILES (X86)\MICROSOFT SDKS\WINDOWS\V7.0A\LIB\KERNEL32.LIB
C:\PROGRAM FILES (X86)\MICROSOFT SDKS\WINDOWS\V7.0A\LIB\USER32.LIB
C:\PROGRAM FILES (X86)\MICROSOFT SDKS\WINDOWS\V7.0A\LIB\GDI32.LIB
C:\PROGRAM FILES (X86)\MICROSOFT SDKS\WINDOWS\V7.0A\LIB\WINSPOOL.LIB
C:\PROGRAM FILES (X86)\MICROSOFT SDKS\WINDOWS\V7.0A\LIB\COMDLG32.LIB
C:\PROGRAM FILES (X86)\MICROSOFT SDKS\WINDOWS\V7.0A\LIB\ADVAPI32.LIB
C:\PROGRAM FILES (X86)\MICROSOFT SDKS\WINDOWS\V7.0A\LIB\SHELL32.LIB
C:\PROGRAM FILES (X86)\MICROSOFT SDKS\WINDOWS\V7.0A\LIB\OLE32.LIB
C:\PROGRAM FILES (X86)\MICROSOFT SDKS\WINDOWS\V7.0A\LIB\OLEAUT32.LIB
C:\PROGRAM FILES (X86)\MICROSOFT SDKS\WINDOWS\V7.0A\LIB\UUID.LIB
C:\PROGRAM FILES (X86)\MICROSOFT SDKS\WINDOWS\V7.0A\LIB\ODBC32.LIB
C:\PROGRAM FILES (X86)\MICROSOFT SDKS\WINDOWS\V7.0A\LIB\ODBCCP32.LIB
C:\USERS\BIRMINGHAMWP\DOCUMENTS\CLASSES\COMP 446\COMP 446 S14\PARTII\MY CODE\SCENE DESIGN ADDED PRIMITIVES\RELEASE\BOX.OBJ
C:\USERS\BIRMINGHAMWP\DOCUMENTS\CLASSES\COMP 446\COMP 446 S14\PARTII\MY CODE\SCENE DESIGN ADDED PRIMITIVES\RELEASE\COLORED CUBE APP.OBJ
C:\USERS\BIRMINGHAMWP\DOCUMENTS\CLASSES\COMP 446\COMP 446 S14\PARTII\MY CODE\SCENE DESIGN ADDED PRIMITIVES\RELEASE\D3DAPP.OBJ
C:\USERS\BIRMINGHAMWP\DOCUMENTS\CLASSES\COMP 446\COMP 446 S14\PARTII\MY CODE\SCENE DESIGN ADDED PRIMITIVES\RELEASE\GAMETIMER.OBJ
C:\USERS\BIRMINGHAMWP\DOCUMENTS\CLASSES\COMP 446\COMP 446 S14\PARTII\MY CODE\SCENE DESIGN ADDED PRIMITIVES\RELEASE\GAMEOBJECT.OBJ
C:\USERS\BIRMINGHAMWP\DOCUMENTS\CLASSES\COMP 446\COMP 446 S14\PARTII\MY CODE\SCENE DESIGN ADDED PRIMITIVES\RELEASE\LINE.OBJ
C:\USERS\BIRMINGHAMWP\DOCUMENTS\CLASSES\COMP 446\COMP 446 S14\PARTII\MY CODE\SCENE DESIGN ADDED PRIMITIVES\RELEASE\QUAD.OBJ
C:\WINDOWS\GLOBALIZATION\SORTING\SORTDEFAULT.NLS
C:\PROGRAM FILES (X86)\MICROSOFT VISUAL STUDIO 10.0\VC\BIN\C2.DLL
C:\PROGRAM FILES (X86)\MICROSOFT VISUAL STUDIO 10.0\VC\LIB\MSVCPRT.LIB
C:\PROGRAM FILES (X86)\MICROSOFT VISUAL STUDIO 10.0\VC\LIB\MSVCRT.LIB
C:\PROGRAM FILES (X86)\MICROSOFT VISUAL STUDIO 10.0\VC\LIB\OLDNAMES.LIB
C:\PROGRAM FILES (X86)\MICROSOFT VISUAL STUDIO 10.0\VC\BIN\1033\LINKUI.DLL
C:\WINDOWS\SYSTEM32\TZRES.DLL
