^C:\USERS\BIRMINGHAMWP\DOCUMENTS\CLASSES\COMP 446\COMP 446 S14\PARTII\MY CODE\SCENE DESIGN ADDED PRIMITIVES\RELEASE\BOX.OBJ|C:\USERS\BIRMINGHAMWP\DOCUMENTS\CLASSES\COMP 446\COMP 446 S14\PARTII\MY CODE\SCENE DESIGN ADDED PRIMITIVES\RELEASE\COLORED CUBE APP.OBJ|C:\USERS\BIRMINGHAMWP\DOCUMENTS\CLASSES\COMP 446\COMP 446 S14\PARTII\MY CODE\SCENE DESIGN ADDED PRIMITIVES\RELEASE\D3DAPP.OBJ|C:\USERS\BIRMINGHAMWP\DOCUMENTS\CLASSES\COMP 446\COMP 446 S14\PARTII\MY CODE\SCENE DESIGN ADDED PRIMITIVES\RELEASE\GAMEOBJECT.OBJ|C:\USERS\BIRMINGHAMWP\DOCUMENTS\CLASSES\COMP 446\COMP 446 S14\PARTII\MY CODE\SCENE DESIGN ADDED PRIMITIVES\RELEASE\GAMETIMER.OBJ|C:\USERS\BIRMINGHAMWP\DOCUMENTS\CLASSES\COMP 446\COMP 446 S14\PARTII\MY CODE\SCENE DESIGN ADDED PRIMITIVES\RELEASE\LINE.OBJ|C:\USERS\BIRMINGHAMWP\DOCUMENTS\CLASSES\COMP 446\COMP 446 S14\PARTII\MY CODE\SCENE DESIGN ADDED PRIMITIVES\RELEASE\QUAD.OBJ
C:\USERS\BIRMINGHAMWP\DOCUMENTS\CLASSES\COMP 446\COMP 446 S14\PARTII\MY CODE\SCENE DESIGN ADDED PRIMITIVES\RELEASE\COLORED CUBE.EXE
C:\USERS\BIRMINGHAMWP\DOCUMENTS\CLASSES\COMP 446\COMP 446 S14\PARTII\MY CODE\SCENE DESIGN ADDED PRIMITIVES\RELEASE\COLORED CUBE.EXE.INTERMEDIATE.MANIFEST
C:\USERS\BIRMINGHAMWP\DOCUMENTS\CLASSES\COMP 446\COMP 446 S14\PARTII\MY CODE\SCENE DESIGN ADDED PRIMITIVES\RELEASE\COLORED CUBE.PDB
^C:\USERS\WPB\DOCUMENTS\COMP 446 CODE\PARTII\CHAPTER 5\COLORED CUBE EDITTED\RELEASE\BOX.OBJ|C:\USERS\WPB\DOCUMENTS\COMP 446 CODE\PARTII\CHAPTER 5\COLORED CUBE EDITTED\RELEASE\COLORED CUBE APP.OBJ|C:\USERS\WPB\DOCUMENTS\COMP 446 CODE\PARTII\CHAPTER 5\COLORED CUBE EDITTED\RELEASE\D3DAPP.OBJ|C:\USERS\WPB\DOCUMENTS\COMP 446 CODE\PARTII\CHAPTER 5\COLORED CUBE EDITTED\RELEASE\GAMETIMER.OBJ
C:\USERS\WPB\DOCUMENTS\COMP 446 CODE\PARTII\CHAPTER 5\COLORED CUBE EDITTED\RELEASE\COLORED CUBE.EXE
C:\USERS\WPB\DOCUMENTS\COMP 446 CODE\PARTII\CHAPTER 5\COLORED CUBE EDITTED\RELEASE\COLORED CUBE.EXE.INTERMEDIATE.MANIFEST
C:\USERS\WPB\DOCUMENTS\COMP 446 CODE\PARTII\CHAPTER 5\COLORED CUBE EDITTED\RELEASE\COLORED CUBE.PDB
