#Command: mt.exe @C:\Users\wpb\AppData\Local\Temp\057800dd74794e90b13203fa1151f7a3.rsp
^C:\USERS\WPB\DOCUMENTS\COMP 446 CODE\PARTII\CHAPTER 5\COLORED CUBE EDITTED\RELEASE\COLORED CUBE.EXE.INTERMEDIATE.MANIFEST
C:\USERS\WPB\APPDATA\LOCAL\TEMP\057800DD74794E90B13203FA1151F7A3.RSP
C:\USERS\WPB\DOCUMENTS\COMP 446 CODE\PARTII\CHAPTER 5\COLORED CUBE EDITTED\RELEASE\COLORED CUBE.EXE.INTERMEDIATE.MANIFEST
C:\WINDOWS\REGISTRATION\R00000000001A.CLB
C:\WINDOWS\MICROSOFT.NET\FRAMEWORK\V2.0.50727\MSCORWKS.DLL
C:\WINDOWS\MICROSOFT.NET\FRAMEWORK\V4.0.30319\CLR.DLL
C:\PROGRAM FILES (X86)\MICROSOFT SDKS\WINDOWS\V7.0A\BIN\MT.EXE.CONFIG
C:\WINDOWS\MICROSOFT.NET\FRAMEWORK\V4.0.30319\CLR.DLL
C:\USERS\WPB\DOCUMENTS\COMP 446 CODE\PARTII\CHAPTER 5\COLORED CUBE EDITTED\RELEASE\COLORED CUBE.EXE
