#Command: mt.exe @C:\Users\wpb\AppData\Local\Temp\057800dd74794e90b13203fa1151f7a3.rsp
^C:\USERS\WPB\DOCUMENTS\COMP 446 CODE\PARTII\CHAPTER 5\COLORED CUBE EDITTED\RELEASE\COLORED CUBE.EXE.INTERMEDIATE.MANIFEST
C:\USERS\WPB\DOCUMENTS\COMP 446 CODE\PARTII\CHAPTER 5\COLORED CUBE EDITTED\RELEASE\COLORED CUBE.EXE
