#Command: mt.exe @C:\Users\wpb\AppData\Local\Temp\b5099305f7814b22b415cd42b9f7e722.rsp
^C:\USERS\WPB\DOCUMENTS\COMP 446 CODE\PARTII\CHAPTER 5\COLORED CUBE EDITTED\RELEASE\COLORED CUBE.EXE.INTERMEDIATE.MANIFEST
C:\USERS\WPB\DOCUMENTS\COMP 446 CODE\PARTII\CHAPTER 5\COLORED CUBE EDITTED\RELEASE\COLORED CUBE.EXE
