^C:\USERS\BURGESSSA1\DOWNLOADS\SCENE DESIGN\SCENE DESIGN FOR CLASS\DEBUG\BOX.OBJ|C:\USERS\BURGESSSA1\DOWNLOADS\SCENE DESIGN\SCENE DESIGN FOR CLASS\DEBUG\COLORED CUBE APP.OBJ|C:\USERS\BURGESSSA1\DOWNLOADS\SCENE DESIGN\SCENE DESIGN FOR CLASS\DEBUG\D3DAPP.OBJ|C:\USERS\BURGESSSA1\DOWNLOADS\SCENE DESIGN\SCENE DESIGN FOR CLASS\DEBUG\GAMEOBJECT.OBJ|C:\USERS\BURGESSSA1\DOWNLOADS\SCENE DESIGN\SCENE DESIGN FOR CLASS\DEBUG\GAMETIMER.OBJ|C:\USERS\BURGESSSA1\DOWNLOADS\SCENE DESIGN\SCENE DESIGN FOR CLASS\DEBUG\INPUT.OBJ|C:\USERS\BURGESSSA1\DOWNLOADS\SCENE DESIGN\SCENE DESIGN FOR CLASS\DEBUG\LINE.OBJ|C:\USERS\BURGESSSA1\DOWNLOADS\SCENE DESIGN\SCENE DESIGN FOR CLASS\DEBUG\LINEOBJECT.OBJ|C:\USERS\BURGESSSA1\DOWNLOADS\SCENE DESIGN\SCENE DESIGN FOR CLASS\DEBUG\QUAD.OBJ
/OUT:"C:\USERS\BURGESSSA1\DOWNLOADS\SCENE DESIGN\SCENE DESIGN FOR CLASS\DEBUG\COLORED CUBE.EXE" /INCREMENTAL /NOLOGO d3d10.lib d3dx10d.lib dxerr.lib dxguid.lib xinput.lib kernel32.lib user32.lib gdi32.lib winspool.lib comdlg32.lib advapi32.lib shell32.lib ole32.lib oleaut32.lib uuid.lib odbc32.lib odbccp32.lib /MANIFEST /MANIFESTUAC:"level='asInvoker' uiAccess='false'" /manifest:embed /DEBUG /PDB:"C:\USERS\BURGESSSA1\DOWNLOADS\SCENE DESIGN\SCENE DESIGN FOR CLASS\DEBUG\COLORED CUBE.PDB" /SUBSYSTEM:WINDOWS /TLBID:1 /DYNAMICBASE /NXCOMPAT /IMPLIB:"C:\USERS\BURGESSSA1\DOWNLOADS\SCENE DESIGN\SCENE DESIGN FOR CLASS\DEBUG\COLORED CUBE.LIB" /MACHINE:X86 /SAFESEH DEBUG\D3DAPP.OBJDEBUG\GAMETIMER.OBJDEBUG\BOX.OBJ"DEBUG\COLORED CUBE APP.OBJ"DEBUG\GAMEOBJECT.OBJDEBUG\INPUT.OBJDEBUG\LINE.OBJDEBUG\LINEOBJECT.OBJDEBUG\QUAD.OBJ
^C:\USERS\BURGESSSA1\DOCUMENTS\PROJECT1\SCENE DESIGN FOR CLASS\DEBUG\BOX.OBJ|C:\USERS\BURGESSSA1\DOCUMENTS\PROJECT1\SCENE DESIGN FOR CLASS\DEBUG\COLORED CUBE APP.OBJ|C:\USERS\BURGESSSA1\DOCUMENTS\PROJECT1\SCENE DESIGN FOR CLASS\DEBUG\D3DAPP.OBJ|C:\USERS\BURGESSSA1\DOCUMENTS\PROJECT1\SCENE DESIGN FOR CLASS\DEBUG\GAMEOBJECT.OBJ|C:\USERS\BURGESSSA1\DOCUMENTS\PROJECT1\SCENE DESIGN FOR CLASS\DEBUG\GAMETIMER.OBJ|C:\USERS\BURGESSSA1\DOCUMENTS\PROJECT1\SCENE DESIGN FOR CLASS\DEBUG\INPUT.OBJ|C:\USERS\BURGESSSA1\DOCUMENTS\PROJECT1\SCENE DESIGN FOR CLASS\DEBUG\LINE.OBJ|C:\USERS\BURGESSSA1\DOCUMENTS\PROJECT1\SCENE DESIGN FOR CLASS\DEBUG\LINEOBJECT.OBJ|C:\USERS\BURGESSSA1\DOCUMENTS\PROJECT1\SCENE DESIGN FOR CLASS\DEBUG\QUAD.OBJ
/OUT:"C:\USERS\BURGESSSA1\DOCUMENTS\PROJECT1\SCENE DESIGN FOR CLASS\DEBUG\COLORED CUBE.EXE" /INCREMENTAL /NOLOGO d3d10.lib d3dx10d.lib dxerr.lib dxguid.lib xinput.lib kernel32.lib user32.lib gdi32.lib winspool.lib comdlg32.lib advapi32.lib shell32.lib ole32.lib oleaut32.lib uuid.lib odbc32.lib odbccp32.lib /MANIFEST /MANIFESTUAC:"level='asInvoker' uiAccess='false'" /manifest:embed /DEBUG /PDB:"C:\USERS\BURGESSSA1\DOCUMENTS\PROJECT1\SCENE DESIGN FOR CLASS\DEBUG\COLORED CUBE.PDB" /SUBSYSTEM:WINDOWS /TLBID:1 /DYNAMICBASE /NXCOMPAT /IMPLIB:"C:\USERS\BURGESSSA1\DOCUMENTS\PROJECT1\SCENE DESIGN FOR CLASS\DEBUG\COLORED CUBE.LIB" /MACHINE:X86 /SAFESEH DEBUG\D3DAPP.OBJDEBUG\GAMETIMER.OBJDEBUG\BOX.OBJ"DEBUG\COLORED CUBE APP.OBJ"DEBUG\GAMEOBJECT.OBJDEBUG\INPUT.OBJDEBUG\LINE.OBJDEBUG\LINEOBJECT.OBJDEBUG\QUAD.OBJ
